…
    ## Warning: unnest() has a new interface. See ?unnest for details.
    ## Try `df %>% unnest(c(results, glance))`, with `mutate()` if needed

``` r
weather_bootstrap
```

    ## # A tibble: 10,000 x 4
    ##    .id   r.squared estimate term       
    ##    <chr>     <dbl>    <dbl> <chr>      
    ##  1 0001      0.907    7.45  (Intercept)
    ##  2 0001      0.907    1.03  tmin       
    ##  3 0002      0.896    7.36  (Intercept)
    ##  4 0002      0.896    1.03  tmin       
    ##  5 0003      0.918    7.48  (Intercept)
    ##  6 0003      0.918    1.04  tmin       
    ##  7 0004      0.899    7.91  (Intercept)
    ##  8 0004      0.899    0.998 tmin       
    ##  9 0005      0.913    6.73  (Intercept)
    ## 10 0005      0.913    1.07  tmin       
    ## # … with 9,990 more rows
…
